PCBNEW-LibModule-V1  7/20/2014 1:22:41 AM
# encoding utf-8
Units mm
$INDEX
SOIC-8
$EndINDEX
$MODULE SOIC-8
Po 0 0 0 15 53CB6025 00000000 ~~
Li SOIC-8
Sc 0
AR /53B89891
Op 0 0 0
At SMD
T0 0 0.635 0.75 0.75 0 0.15 N V 21 N "REF**"
T1 0 -0.635 0.75 0.75 0 0.15 N V 21 N "SOIC-8"
DC -1.905 1.397 -1.778 1.5875 0.1 21
DS -2.413 -1.9812 -2.413 1.9812 0.15 21
DS -2.413 1.9812 2.413 1.9812 0.15 21
DS 2.413 1.9812 2.413 -1.9812 0.15 21
DS 2.413 -1.9812 -2.413 -1.9812 0.15 21
$PAD
Sh "1" R 0.635 1.27 0 0 0
Dr 0 0 0
At SMD N 00808000
Ne 0 ""
Po -1.905 2.794
$EndPAD
$PAD
Sh "2" R 0.635 1.27 0 0 0
Dr 0 0 0
At SMD N 00808000
Ne 0 ""
Po -0.635 2.794
$EndPAD
$PAD
Sh "3" R 0.635 1.27 0 0 0
Dr 0 0 0
At SMD N 00808000
Ne 0 ""
Po 0.635 2.794
$EndPAD
$PAD
Sh "4" R 0.635 1.27 0 0 0
Dr 0 0 0
At SMD N 00808000
Ne 0 ""
Po 1.905 2.794
$EndPAD
$PAD
Sh "5" R 0.635 1.27 0 0 0
Dr 0 0 0
At SMD N 00808000
Ne 0 ""
Po 1.905 -2.794
$EndPAD
$PAD
Sh "6" R 0.635 1.27 0 0 0
Dr 0 0 0
At SMD N 00808000
Ne 0 ""
Po 0.635 -2.794
$EndPAD
$PAD
Sh "7" R 0.635 1.27 0 0 0
Dr 0 0 0
At SMD N 00808000
Ne 0 ""
Po -0.635 -2.794
$EndPAD
$PAD
Sh "8" R 0.635 1.27 0 0 0
Dr 0 0 0
At SMD N 00808000
Ne 0 ""
Po -1.905 -2.794
$EndPAD
$SHAPE3D
Na "smd/smd_dil/so-8.wrl"
Sc 1 1 1
Of 0 0 0
Ro 0 0 0
$EndSHAPE3D
$EndMODULE SOIC-8
$EndLIBRARY
