PCBNEW-LibModule-V1  7/20/2014 12:40:59 AM
# encoding utf-8
Units mm
$INDEX
TERM_BLOCK-3
$EndINDEX
$MODULE TERM_BLOCK-3
Po 0 0 0 15 53CB564A 00000000 ~~
Li TERM_BLOCK-3
Sc 0
AR /53B8A40A
Op 0 0 0
T0 -3.81 0 1 1 900 0.2 N V 21 N "REF**"
T1 3.81 0 1 1 900 0.2 N I 21 N "TERM_BLOCK-3"
DS -2.54 -7.62 -2.54 7.62 0.2 21
DS 2.54 -7.62 2.54 7.62 0.2 21
DS 5.08 -7.62 5.08 7.62 0.2 21
DS 5.08 7.62 -5.08 7.62 0.2 21
DS -5.08 7.62 -5.08 -7.62 0.2 21
DS -5.08 -7.62 5.08 -7.62 0.2 21
$PAD
Sh "1" O 4 3 0 0 0
Dr 1.5 0 0
At STD N 00E0FFFF
Ne 0 ""
Po 0 -5.08
$EndPAD
$PAD
Sh "2" O 4 3 0 0 0
Dr 1.5 0 0
At STD N 00E0FFFF
Ne 0 ""
Po 0 0
$EndPAD
$PAD
Sh "3" O 4 3 0 0 0
Dr 1.5 0 0
At STD N 00E0FFFF
Ne 0 ""
Po 0 5.08
$EndPAD
$EndMODULE TERM_BLOCK-3
$EndLIBRARY
