EESchema Schematic File Version 2
LIBS:power
LIBS:device
LIBS:transistors
LIBS:conn
LIBS:linear
LIBS:regul
LIBS:74xx
LIBS:cmos4000
LIBS:adc-dac
LIBS:memory
LIBS:xilinx
LIBS:special
LIBS:microcontrollers
LIBS:dsp
LIBS:microchip
LIBS:analog_switches
LIBS:motorola
LIBS:texas
LIBS:intel
LIBS:audio
LIBS:interface
LIBS:digital-audio
LIBS:philips
LIBS:display
LIBS:cypress
LIBS:siliconi
LIBS:opto
LIBS:atmel
LIBS:contrib
LIBS:valves
LIBS:INA219
LIBS:circuit-cache
EELAYER 27 0
EELAYER END
$Descr A4 11693 8268
encoding utf-8
Sheet 1 1
Title ""
Date "20 jul 2014"
Rev ""
Comp ""
Comment1 ""
Comment2 ""
Comment3 ""
Comment4 ""
$EndDescr
$Comp
L INA219 U1
U 1 1 53B89891
P 5600 3750
F 0 "U1" H 5600 4100 60  0000 C CNN
F 1 "INA219" H 5600 3400 60  0000 C CNN
F 2 "~" H 5600 3750 60  0000 C CNN
F 3 "~" H 5600 3750 60  0000 C CNN
	1    5600 3750
	1    0    0    -1  
$EndComp
$Comp
L R R1
U 1 1 53B898A0
P 5600 3200
F 0 "R1" V 5680 3200 40  0000 C CNN
F 1 "R" V 5607 3201 40  0000 C CNN
F 2 "~" V 5530 3200 30  0000 C CNN
F 3 "~" H 5600 3200 30  0000 C CNN
	1    5600 3200
	0    -1   -1   0   
$EndComp
Text Label 6150 3600 0    60   ~ 0
VIN+
Text Label 6150 3700 0    60   ~ 0
VIN-
Text Label 5050 3600 2    60   ~ 0
A1
Text Label 5050 3700 2    60   ~ 0
A0
Text Label 5050 3800 2    60   ~ 0
SDA
Text Label 5050 3900 2    60   ~ 0
SCL
Text Label 5850 3200 0    60   ~ 0
VIN-
Text Label 5350 3200 2    60   ~ 0
VIN+
$Comp
L GND #PWR01
U 1 1 53B898E8
P 6750 3600
F 0 "#PWR01" H 6750 3600 30  0001 C CNN
F 1 "GND" H 6750 3530 30  0001 C CNN
F 2 "" H 6750 3600 60  0000 C CNN
F 3 "" H 6750 3600 60  0000 C CNN
	1    6750 3600
	0    1    1    0   
$EndComp
$Comp
L GND #PWR02
U 1 1 53B898F5
P 6150 3800
F 0 "#PWR02" H 6150 3800 30  0001 C CNN
F 1 "GND" H 6150 3730 30  0001 C CNN
F 2 "" H 6150 3800 60  0000 C CNN
F 3 "" H 6150 3800 60  0000 C CNN
	1    6150 3800
	0    -1   -1   0   
$EndComp
$Comp
L GND #PWR03
U 1 1 53B89930
P 6750 3900
F 0 "#PWR03" H 6750 3900 30  0001 C CNN
F 1 "GND" H 6750 3830 30  0001 C CNN
F 2 "" H 6750 3900 60  0000 C CNN
F 3 "" H 6750 3900 60  0000 C CNN
	1    6750 3900
	0    1    1    0   
$EndComp
Text Label 6750 4100 2    60   ~ 0
SDA
Text Label 6750 4200 2    60   ~ 0
SCL
Text Label 4250 3850 0    60   ~ 0
A1
$Comp
L GND #PWR04
U 1 1 53B89C11
P 4500 3950
F 0 "#PWR04" H 4500 3950 30  0001 C CNN
F 1 "GND" H 4500 3880 30  0001 C CNN
F 2 "" H 4500 3950 60  0000 C CNN
F 3 "" H 4500 3950 60  0000 C CNN
	1    4500 3950
	0    -1   -1   0   
$EndComp
$Comp
L R R3
U 1 1 53B89D61
P 5600 4700
F 0 "R3" V 5680 4700 40  0000 C CNN
F 1 "3k3" V 5607 4701 40  0000 C CNN
F 2 "~" V 5530 4700 30  0000 C CNN
F 3 "~" H 5600 4700 30  0000 C CNN
	1    5600 4700
	1    0    0    -1  
$EndComp
$Comp
L R R2
U 1 1 53B89D6B
P 5850 4700
F 0 "R2" V 5930 4700 40  0000 C CNN
F 1 "3k3" V 5857 4701 40  0000 C CNN
F 2 "~" V 5780 4700 30  0000 C CNN
F 3 "~" H 5850 4700 30  0000 C CNN
	1    5850 4700
	1    0    0    -1  
$EndComp
Text Label 5600 4950 3    60   ~ 0
SDA
Text Label 5850 4950 3    60   ~ 0
SCL
$Comp
L VCC #PWR06
U 1 1 53B89F62
P 6750 4000
F 0 "#PWR06" H 6750 4100 30  0001 C CNN
F 1 "VCC" H 6750 4100 30  0000 C CNN
F 2 "" H 6750 4000 60  0000 C CNN
F 3 "" H 6750 4000 60  0000 C CNN
	1    6750 4000
	0    -1   -1   0   
$EndComp
$Comp
L VCC #PWR07
U 1 1 53B89F75
P 6150 3900
F 0 "#PWR07" H 6150 4000 30  0001 C CNN
F 1 "VCC" H 6150 4000 30  0000 C CNN
F 2 "" H 6150 3900 60  0000 C CNN
F 3 "" H 6150 3900 60  0000 C CNN
	1    6150 3900
	0    1    1    0   
$EndComp
$Comp
L VCC #PWR08
U 1 1 53B89F7B
P 4000 3950
F 0 "#PWR08" H 4000 4050 30  0001 C CNN
F 1 "VCC" H 4000 4050 30  0000 C CNN
F 2 "" H 4000 3950 60  0000 C CNN
F 3 "" H 4000 3950 60  0000 C CNN
	1    4000 3950
	0    -1   -1   0   
$EndComp
$Comp
L VCC #PWR010
U 1 1 53B89F91
P 5600 4450
F 0 "#PWR010" H 5600 4550 30  0001 C CNN
F 1 "VCC" H 5600 4550 30  0000 C CNN
F 2 "" H 5600 4450 60  0000 C CNN
F 3 "" H 5600 4450 60  0000 C CNN
	1    5600 4450
	1    0    0    -1  
$EndComp
$Comp
L VCC #PWR011
U 1 1 53B89F97
P 5850 4450
F 0 "#PWR011" H 5850 4550 30  0001 C CNN
F 1 "VCC" H 5850 4550 30  0000 C CNN
F 2 "" H 5850 4450 60  0000 C CNN
F 3 "" H 5850 4450 60  0000 C CNN
	1    5850 4450
	1    0    0    -1  
$EndComp
$Comp
L C C1
U 1 1 53B89FB4
P 5350 4650
F 0 "C1" H 5350 4750 40  0000 L CNN
F 1 "0.1uF" H 5356 4565 40  0000 L CNN
F 2 "~" H 5388 4500 30  0000 C CNN
F 3 "~" H 5350 4650 60  0000 C CNN
	1    5350 4650
	-1   0    0    1   
$EndComp
$Comp
L GND #PWR012
U 1 1 53B89FC1
P 5350 4850
F 0 "#PWR012" H 5350 4850 30  0001 C CNN
F 1 "GND" H 5350 4780 30  0001 C CNN
F 2 "" H 5350 4850 60  0000 C CNN
F 3 "" H 5350 4850 60  0000 C CNN
	1    5350 4850
	1    0    0    -1  
$EndComp
$Comp
L VCC #PWR013
U 1 1 53B89FC7
P 5350 4450
F 0 "#PWR013" H 5350 4550 30  0001 C CNN
F 1 "VCC" H 5350 4550 30  0000 C CNN
F 2 "" H 5350 4450 60  0000 C CNN
F 3 "" H 5350 4450 60  0000 C CNN
	1    5350 4450
	1    0    0    -1  
$EndComp
$Comp
L CONN_3 T1
U 1 1 53B8A40A
P 7100 3500
F 0 "T1" V 7050 3500 50  0000 C CNN
F 1 "TERM_BLOCK-3" V 7150 3500 40  0000 C CNN
F 2 "" H 7100 3500 60  0000 C CNN
F 3 "" H 7100 3500 60  0000 C CNN
	1    7100 3500
	1    0    0    -1  
$EndComp
Text Label 6750 3500 2    60   ~ 0
VIN-
Text Label 6750 3400 2    60   ~ 0
VIN+
$Comp
L CONN_4 P1
U 1 1 53B8A57F
P 7100 4050
F 0 "P1" V 7050 4050 50  0000 C CNN
F 1 "CONN_4" V 7150 4050 50  0000 C CNN
F 2 "" H 7100 4050 60  0000 C CNN
F 3 "" H 7100 4050 60  0000 C CNN
	1    7100 4050
	1    0    0    -1  
$EndComp
$Comp
L JUMPER3 A1
U 1 1 53CB5CFC
P 4250 3950
F 0 "A1" H 4300 3850 40  0000 L CNN
F 1 "JMP-3" H 4250 4050 40  0000 C CNN
F 2 "~" H 4250 3950 60  0000 C CNN
F 3 "~" H 4250 3950 60  0000 C CNN
	1    4250 3950
	-1   0    0    1   
$EndComp
Text Label 4250 3350 0    60   ~ 0
A0
$Comp
L GND #PWR?
U 1 1 53CB5D40
P 4500 3450
F 0 "#PWR?" H 4500 3450 30  0001 C CNN
F 1 "GND" H 4500 3380 30  0001 C CNN
F 2 "" H 4500 3450 60  0000 C CNN
F 3 "" H 4500 3450 60  0000 C CNN
	1    4500 3450
	0    -1   -1   0   
$EndComp
$Comp
L VCC #PWR?
U 1 1 53CB5D46
P 4000 3450
F 0 "#PWR?" H 4000 3550 30  0001 C CNN
F 1 "VCC" H 4000 3550 30  0000 C CNN
F 2 "" H 4000 3450 60  0000 C CNN
F 3 "" H 4000 3450 60  0000 C CNN
	1    4000 3450
	0    -1   -1   0   
$EndComp
$Comp
L JUMPER3 A0
U 1 1 53CB5D4C
P 4250 3450
F 0 "A0" H 4300 3350 40  0000 L CNN
F 1 "JMP-3" H 4250 3550 40  0000 C CNN
F 2 "~" H 4250 3450 60  0000 C CNN
F 3 "~" H 4250 3450 60  0000 C CNN
	1    4250 3450
	-1   0    0    1   
$EndComp
$EndSCHEMATC
